{
  "profiles": {
    "Docker Compose": {
      "commandName": "DockerCompose",
      "commandVersion": "1.0",
      "serviceActions": {
        "otus.teaching.pcf.receivingfrompartner.webhost": "StartDebugging",
        "otus.teaching.pcf.administration.webhost": "StartDebugging"
      }
    }
  }
}